models/weapons/hive/missilePS
{
  ejector
  {
    particle
    {
      shader 20 models/weapons/hive/sprite1.tga models/weapons/hive/sprite2.tga

      displacement 0 0 0 ~4.0

      parentVelocityFraction  0.5
      velocityType      static
      velocityDir       linear
      velocityMagnitude 100
      velocity          0 0 1 ~180

      accelerationType      cent
      accelerationDir       point
      accelerationMagnitude 2000

      rotation 0 -20.0~40.0 -20.0~40.0
      radius 0 2.0 2.0
      alpha  0 1.0 0.0
      bounce 0.5

      lifeTime 4000
    }

    count infinite
    delay 0
    period 100 - ~0%
  }
}

models/weapons/rifle/impactPS
{
  ejector
  {
    particle
    {
      shader sync gfx/rifle/concreteparticle2

      displacement 0 0 0 ~4.0

      velocityType      normal
      velocityDir       linear
      velocityMagnitude 200
      velocity          0 0 0 ~20

      accelerationType      static
      accelerationDir       linear
      accelerationMagnitude 600
      acceleration          0 0 -1 0

      radius 0 1.0 1.0
      alpha  0 1.0 0.0
      rotation 0 ~360 -
      bounce 0.5

      lifeTime 550
    }

    count 1~3
    delay ~50
    period 0 - ~0%
  }

  ejector
  {
    particle
    {
      shader sync gfx/blood/impactpuff2

      displacement 0 0 0 ~4.0

      parentVelocityFraction 0.4

      radius 0 5.9 30.0
      alpha  0 0.3 0.0
      rotation 0 ~360 -
      bounce 0.1

      lifeTime 550
    }

    count 3
    delay 0
    period 0 - ~0%
  }

  ejector
  {
    particle
    {
      shader sync gfx/blaster/orange_particle

      displacement 0 0 0 ~0.0
      dynamicLight    0 0 40 { 0.4 0.3 0.2 }

      velocityType      normal
      velocityDir       linear
      velocityMagnitude 950
      velocity          0 0 0 ~80

      accelerationType      normal
      accelerationDir       linear
      accelerationMagnitude 900~650
      acceleration          0 0 1 ~360

      radius 0 2.0 0.0
      alpha  0 1.0 0.0
      rotation 0 ~360 -
      bounce 0.5

      lifeTime 70~10
	  childTrailSystem models/weapons/rifle/impactTS

    }

    count 1~4
    delay 0
    period 0 - ~0%
  }
}

models/weapons/rifle/muzzlePS
{
  ejector
  {
    particle
    {
      shader sync gfx/blood/smokepuff3

      displacement 0 0 0 ~3.0

      parentVelocityFraction 0.0

      velocityType      static
      velocityDir       linear
      velocityMagnitude 20
      velocity          0 0 0 0

      accelerationType      static
      accelerationDir       linear
      accelerationMagnitude 250
      acceleration          0 0 1 0

      radius 0 2.0 4.0
      alpha  0 0.4 0.0
      rotation 0 ~360 -
      bounce 0.0

      lifeTime 300
    }

    count 3
    delay 0
    period 0 - ~0%
  }

  ejector
  {
    particle
    {
      model models/weapons/shells/rifle-shell.md3

      displacement -5 -3 0 ~0.0

      parentVelocityFraction 0.85

      velocityType      static_transform
      velocityDir       linear
      velocityMagnitude 100
      velocity          0 -1 3 ~10

      accelerationType      static
      accelerationDir       linear
      accelerationMagnitude 900
      acceleration          0 0 -1 0

      radius 0 1.0 -
	rotation 0 0 360
      bounce 0.6
      bounceSound     ~1 models/weapons/rifle/shell01.wav

      lifeTime 5000
    }

    count 1
    delay 0
    period 0 - ~0%
  }
}

models/weapons/shotgun/muzzlePS
{
  ejector
  {
    particle
    {
      shader sync gfx/blood/smokepuff3

      parentVelocityFraction 0.1

      radius 0 6.0 20.0
      alpha  0 0.7 0.0
      rotation 0 ~360 -
      bounce 0.1

      lifeTime 750
    }

    count 1
    delay 0
    period 0 - ~0%
  }

  ejector
  {
    particle
    {
      shader sync gfx/sprites/smoke

      displacement 0 0 0 ~0.0

      parentVelocityFraction 0.0

      velocityType      static
      velocityDir       linear
      velocityMagnitude 20
      velocity          0 0 0 0

      accelerationType      static
      accelerationDir       linear
      accelerationMagnitude 300
      acceleration          0 0 1 0

      radius 0 2.2 4.2
      alpha  0 0.3 0.0
      rotation 0 ~360 -
      bounce 0.0

      lifeTime 450
    }

    count 30
    delay ~200
    period 10 - ~0%
  }

  ejector
  {
    particle
    {
      model models/weapons/shells/shotgun-shell.md3

      displacement -5 -3 0 ~0.0

      parentVelocityFraction 0.85

      velocityType      static_transform
      velocityDir       linear
      velocityMagnitude 120
      velocity          0 -1 3 ~10

      accelerationType      static
      accelerationDir       linear
      accelerationMagnitude 800
      acceleration          0 0 -1 0

      radius 0 1.0 -
      bounce 0.6
      bounceSound     ~1 models/weapons/shotgun/shell1.wav

      lifeTime 5000
    }

    count 1
    delay 0
    period 0 - ~0%
  }
}

models/weapons/chaingun/muzzlePS
{
  ejector
  {
    particle
    {
      shader sync gfx/blood/csmoke

      displacement 0 0 0 ~1.0

      parentVelocityFraction 0.0

      velocityType      static
      velocityDir       linear
      velocityMagnitude 20
      velocity          0 0 0 0

      accelerationType      static
      accelerationDir       linear
      accelerationMagnitude 150
      acceleration          0 0 1 0

      radius 0 4.5 6.5
      alpha  0 0.3 0.0
      rotation 0 ~360 -
      bounce 0.0

      lifeTime 450
    }

    count 4
    delay ~150
    period 6 - ~0%
  }

  ejector
  {
    particle
    {
      model models/weapons/shells/rifle-shell.md3

      displacement -5 -3 0 ~0.0

      parentVelocityFraction 0.85

      velocityType      static_transform
      velocityDir       linear
      velocityMagnitude 120
      velocity          0 -1 3 ~10

      accelerationType      static
      accelerationDir       linear
      accelerationMagnitude 900
      acceleration          0 0 -1 0

      radius 0 1.0 -
      bounce 0.6
      bounceSound     ~1 models/weapons/rifle/shell01.wav

      lifeTime 5000
    }

    count 1
    delay 0
    period 0 - ~0%
  }
}

models/weapons/flamer/muzzlePS
{
  ejector
  {
    particle
    {
      shader sync flame3 flame4 flame5 flame6 flame7 flame8 flame9 flame10 flame11 flame12 flame13 flame14 flame15 flame16 flame17 flame18 flame19 flame20 flame21 flame22 flame23 flame24 flame25
      displacement 0 0 0 ~0.0

      parentVelocityFraction 0.65

      velocityType      cent
      velocityDir       linear
      velocityMagnitude 200
      velocity          0 0 0 ~0

      accelerationType      static
      accelerationDir       linear
      accelerationMagnitude 50
      acceleration          0 0 1 ~0

      radius 0 4.0 40.0
      alpha  0 1.0 1.0
      rotation 0 ~360 -
      bounce 0.1

      lifeTime 1000
    }

    count infinite
    delay 0
    period 15 - ~0%
  }
}


models/weapons/level1upg/muzzlePS
{
  ejector
  {
    particle
    {
      shader sync spore001 spore002 spore003 spore004 spore005 spore006 spore007 spore008 spore009 spore010 spore011 spore012 spore013 spore014 spore015 spore016 spore017

      displacement 0 0 0 ~0.0
      dynamicLight    0 50 0 { 0.4 0.1 0.4 }

      parentVelocityFraction 1.0

      velocityType      cent
      velocityDir       linear
      velocityMagnitude 80
      velocity          0 0 0 ~50

      radius 0 10.0 25.0
      alpha  0 0.1 0.0
      rotation 0 ~360 -
      bounce 1.0

      lifeTime 800
    }

    count 15
    delay 0
    period 40 - ~0%
  }
}

models/weapons/blaster/missilePS
{
  ejector
  {
    particle
    {
      shader sync gfx/blaster/blue_particle

      displacement 0 0 0 ~2.0

      parentVelocityFraction 0.5

      radius 0 1.5 0.0
      alpha  0 1.0 0.0
      bounce 0.01

      lifeTime 500
    }

    count infinite
    delay 0
    period 2 - ~0%
  }
}

models/weapons/blaster/impactPS
{
  ejector
  {
    particle
    {
      shader sync gfx/sprites/smoke

      displacement 0 0 0 ~3.0
      normalDisplacement 3.0

      velocityType      normal
      velocityDir       linear
      velocityMagnitude 20
      velocity          0 0 0 0

      accelerationType      static
      accelerationDir       linear
      accelerationMagnitude 300
      acceleration          0 0 1 0

      radius 0 4.0 6.0
      alpha  0 0.5 0.0
      rotation 0 ~360 -
      bounce 0.0

      lifeTime 500
    }

    count 20
    delay ~150
    period 10 - ~0%
  }

  ejector
  {
    particle
    {
      shader sync gfx/blaster/blue_particle

      normalDisplacement 3.0
      dynamicLight    0 50 0 { 0.3 0.3 0.5 }

      velocityType      normal
      velocityDir       linear
      velocityMagnitude 200
      velocity          0 0 0 ~160

      accelerationType      static
      accelerationDir       linear
      accelerationMagnitude 600
      acceleration          0 0 -1 0

      radius 0 3.0 0.0
      alpha  0 1.0 0.0
      rotation 0 ~360 -
      bounce 0.2

      lifeTime 400
    }

    count 3~6
    delay 0
    period 0 - ~0%
  }
}

models/weapons/blaster/muzzlePS
{
  ejector
  {
    particle
    {
      shader sync gfx/mdriver/mdriver

      parentVelocityFraction 0.0

      radius 0 5.0 10.0
      alpha  0 0.3 0.0
      rotation 0 ~360 -
      bounce 0.1

      lifeTime 300
    }

    count 1
    delay 0
    period 0 - ~0%
  }

  ejector
  {
    particle
    {
      shader sync gfx/sprites/smoke

      displacement 0 0 0 ~0.0

      parentVelocityFraction 0.0

      velocityType      static
      velocityDir       linear
      velocityMagnitude 20
      velocity          0 0 0 0

      accelerationType      static
      accelerationDir       linear
      accelerationMagnitude 200
      acceleration          0 0 1 0

      radius 0 2.0 4.0
      alpha  0 0.1 0.0
      rotation 0 ~360 -
      bounce 0.0

      lifeTime 350
    }

    count 25
    delay ~200
    period 10 - ~0%
  }
}

models/weapons/prifle/missilePS
{
  ejector
  {
    particle
    {
      shader sync gfx/prifle/primary

      displacement 0 0 0 ~2.0

      parentVelocityFraction 0.5

      radius 0 3.5 0.0
      alpha  0 1.0 0.0
      bounce 0.01

      lifeTime 550
    }

    count infinite
    delay 0
    period 2 - ~0%
  }
}

models/weapons/prifle/impactPS
{
  ejector
  {
    particle
    {
      shader sync gfx/prifle/primary
      
      radius 0 3.0 6.0
      alpha  70 1.0 0.0
      rotation 0 ~360 -

      lifeTime 150
    }

    count 1
    delay 0
    period 0 - ~0%
  }

  ejector
  {
    particle
    {
      shader sync gfx/shotgun/smokeshotgun

      displacement 0 0 0 ~4.0

      parentVelocityFraction 0.5

      radius 0 6.0 30.0
      alpha  0 0.4 0.0
      rotation 0 ~360 -
      bounce 0.1

      lifeTime 650
    }

    count 3
    delay 0
    period 0 - ~0%
  }

  ejector
  {
    particle
    {
      shader sync gfx/prifle/primary

      displacement 0 0 0 ~5.0
      normalDisplacement  7.0
      dynamicLight    0 10 0 { 0.0 0.6 1.0 }

      velocityType      normal
      velocityDir       linear
      velocityMagnitude 150
      velocity          0 0 0 ~35

      accelerationType      static
      accelerationDir       linear
      accelerationMagnitude 900
      acceleration          0 0 -1 ~80

      radius 0 2.0~1.0 0.0
      alpha  0 1.0 1.0
      rotation 0 ~360 -
      bounce 0.2

      lifeTime 550
    }

    count 5
    delay 0
    period 0 - ~0%
  }

  ejector
  {
    particle
    {
      parentVelocityFraction 0.5

      dynamicLight    0 80 0 { 0.0 0.6 1.0 }

      lifeTime        50~200
    }

    count 1
    delay 0
    period 0 - ~0%
  }
}

models/weapons/prifle/muzzlePS
{
  ejector
  {
    particle
    {
      shader sync gfx/sprites/smoke

      displacement 0 0 0 ~0.0

      parentVelocityFraction 0.0

      velocityType      static
      velocityDir       linear
      velocityMagnitude 20
      velocity          0 0 0 0

      accelerationType      static
      accelerationDir       linear
      accelerationMagnitude 150
      acceleration          0 0 1 0

      radius 0 2.7 4.0
      alpha  0 0.3 0.0
      rotation 0 ~360 -
      bounce 0.0

      lifeTime 450
    }

    count 3
    delay ~100
    period 5 - ~0%
  }
}

models/weapons/mdriver/muzzlePS
{
  ejector
  {
    particle
    {
      shader sync gfx/mdriver/mdriver

      parentVelocityFraction 0.0

      radius 0 10.0 20.0
      alpha  0 0.3 0.0
      rotation 0 ~360 -
      bounce 0.1

      lifeTime 750
    }

    count 1
    delay 0
    period 0 - ~0%
  }

  ejector
  {
    particle
    {
      shader sync gfx/sprites/smoke

      displacement 0 0 0 ~0.0

      parentVelocityFraction 0.0

      velocityType      static
      velocityDir       linear
      velocityMagnitude 20
      velocity          0 0 0 0

      accelerationType      static
      accelerationDir       linear
      accelerationMagnitude 300
      acceleration          0 0 1 0

      radius 0 2.0 4.0
      alpha  0 0.1 0.0
      rotation 0 ~360 -
      bounce 0.0

      lifeTime 450
    }

    count 40
    delay ~200
    period 10 - ~0%
  }
}

models/weapons/mdriver/impactPS
{
  ejector
  {
    particle
    {
      shader sync gfx/blood/grenadesmokepuff

      displacement 0 0 0 ~4.0

      parentVelocityFraction 0.5

      radius 0 6.0 35.0
      alpha  0 0.4 0.0
      rotation 0 ~360 -
      bounce 0.1

      lifeTime 850
    }

    count 5
    delay 0
    period 0 - ~0%
  }

  ejector
  {
    particle
    {
      shader sync gfx/mdriver/green_particle

      displacement 0 0 0 ~0.0

      velocityType      normal
      velocityDir       linear
      velocityMagnitude 700
      velocity          0 0 0 ~80

      accelerationType      normal
      accelerationDir       linear
      accelerationMagnitude 900~650
      acceleration          0 0 1 ~360

      radius 0 3.0 0.0
      alpha  0 1.0 0.0
      rotation 0 ~360 -
      bounce 0.5

      lifeTime 120~20
	  childTrailSystem models/weapons/mdriver/impactTS
    }

    count 4~12
    delay 0
    period 0 - ~0%
  }

  ejector
  {
    particle
    {
      shader sync gfx/mdriver/green_particle

      displacement 0 0 0 ~2.0

      normalDisplacement 5.0

      velocityType      normal
      velocityDir       linear
      velocityMagnitude 200
      velocity          0 0 0 ~160

      accelerationType      static
      accelerationDir       linear
      accelerationMagnitude 600
      acceleration          0 0 -1 0

      radius 0 3.0 0.0
      alpha  0 1.0 0.0
      rotation 0 ~360 -
      bounce 0.5

      lifeTime 40~4000
    }

    count 3~9
    delay 0
    period 0 - ~0%
  }

  ejector
  {
    particle
    {
      parentVelocityFraction 0.7

      dynamicLight    0 0 150 { 1.0 0.1 0.1 }

      lifeTime        100~300
    }

    count 1
    delay 0
    period 0 - ~0%
  }
}

models/weapons/lcannon/missilePS
{
  ejector
  {
    particle
    {
      shader sync gfx/lcannon/white_particle

      displacement 0 0 0 ~3.0

      parentVelocityFraction  0.2
      velocityType      static
      velocityDir       linear
      velocityMagnitude 300
      velocity          0 0 1 ~360

      radius 0 1.0 5.0
      alpha  0 1.0 0.0
      bounce 0.1

      lifeTime 300
    }
    count infinite
    delay 0
    period 50 - ~0%
  }
  ejector
  {
    particle
    {
      shader sync gfx/blaster/orange_particle

      displacement 0 0 0 ~8

      parentVelocityFraction  0.0~0.05
      velocityType      static
      velocityDir       linear
      velocityMagnitude 2
      velocity          0 0 -1 ~360

      radius 0 1.0 3.0
      alpha  0 1.0 0.0
      bounce 0.1

      lifeTime 50~5000
    }
    count infinite
    delay 0
    period 10 - ~0%
  }
}

models/weapons/lcannon/impactPS
{
  ejector
  {
    particle
    {
      shader sync gfx/lcannon/white_particle

      displacement 0 0 0 ~2.0

      normalDisplacement 10.0

      velocityType      normal
      velocityDir       linear
      velocityMagnitude 300
      velocity          0 0 0 ~360

      accelerationType      static
      accelerationDir       linear
      accelerationMagnitude 150
      acceleration          0 0 -1 0

      radius 0 1.5 5.0
      alpha  0 1.0 0.0
      rotation 0 ~360 -
      bounce 0.8

      lifeTime 200~30
    }
    count 15
    delay 0
    period 0 - ~0%
  }
  ejector
  {
    particle
    {
      shader sync gfx/blaster/orange_particle

      displacement 0 0 0 ~2.0

      normalDisplacement 10.0

      velocityType      normal
      velocityDir       linear
      velocityMagnitude 100
      velocity          0 0 0 ~120

      accelerationType      static
      accelerationDir       linear
      accelerationMagnitude 300
      acceleration          0 0 -1 0

      radius 0 1.0 5.0
      alpha  0 1.0 0.0
      rotation 0 ~360 -
      bounce 0.3

      lifeTime 2000~1000
    }
    count 20
    delay 0
    period 0 - ~0%
  }
  ejector
  {
    particle
    {
      shader sync gfx/lcannon/primary

      displacement 0 0 0 ~10.0

      normalDisplacement 15.0

      velocityType      normal
      velocityDir       linear
      velocityMagnitude 100
      velocity          0 0 0 ~160

      accelerationType      static
      accelerationDir       linear
      accelerationMagnitude 150
      acceleration          0 0 -1 0

      radius 0 20.0 0.0
      alpha  0 1.0 0.0
      rotation 0 ~360 -
      bounce 1.0

      lifeTime 1000~1000
    }

    count 6
    delay 0
    period 0 - ~0%
  }
}

models/weapons/lcannon/secondaryImpactPS
{
  ejector
  {
    particle
    {
      shader sync gfx/lcannon/white_particle

      displacement 0 0 0 ~2.0

      normalDisplacement 10.0

      velocityType      normal
      velocityDir       linear
      velocityMagnitude 600
      velocity          0 0 0 ~360

      accelerationType      static
      accelerationDir       linear
      accelerationMagnitude 150
      acceleration          0 0 -1 0

      radius 0 1.0 5.0
      alpha  0 1.0 0.0
      rotation 0 ~360 -
      bounce 0.8

      lifeTime 80~20
    }

    count 10
    delay 0
    period 0 - ~0%
  }

  ejector
  {
    particle
    {
      shader sync gfx/blaster/orange_particle

      displacement 0 0 0 ~2.0

      normalDisplacement 10.0

      velocityType      normal
      velocityDir       linear
      velocityMagnitude 150
      velocity          0 0 0 ~160

      accelerationType      static
      accelerationDir       linear
      accelerationMagnitude 150
      acceleration          0 0 -1 0

      radius 0 1.0 5.0
      alpha  0 1.0 0.0
      rotation 0 ~360 -
      bounce 0.3

      lifeTime 2000~1000
    }

    count 10
    delay 0
    period 0 - ~0%
  }
}

models/weapons/psaw/impactPS
{
  ejector
  {
    particle
    {
      shader sync gfx/psaw/blue_particle

      displacement 0 0 0 ~5.0

      velocityType      static
      velocityDir       linear
      velocityMagnitude 300
      velocity          0 0 -1 ~25

      accelerationType      static
      accelerationDir       linear
      accelerationMagnitude 800
      acceleration          0 0 -1 ~10

      radius 0 0.1~2.0 0.2~2.0
      alpha  0 1.0 1.0
      rotation 0 ~360 -
      bounce 0.5

      lifeTime 1000
    }

    count 3
    delay 0
    period 0 - ~0%
  }
}

models/weapons/lasgun/muzzlePS
{
  ejector
  {
    particle
    {
      shader sync gfx/sprites/smoke

      displacement 0 0 0 ~0.0

      parentVelocityFraction 0.0

      velocityType      static
      velocityDir       linear
      velocityMagnitude 20
      velocity          0 0 0 0

      accelerationType      static
      accelerationDir       linear
      accelerationMagnitude 200
      acceleration          0 0 1 0

      radius 0 2.0 4.0
      alpha  0 0.2 0.0
      rotation 0 ~360 -
      bounce 0.0

      lifeTime 350
    }

    count 25
    delay ~200
    period 10 - ~0%
  }
}

models/weapons/lasgun/impactPS
{
  ejector
  {
    particle
    {
      shader sync gfx/blood/grenadesmokepuff

      displacement 0 0 0 ~4.0

      parentVelocityFraction 0.6

      radius 0 6.0 30.0
      alpha  0 0.5 0.0
      rotation 0 ~360 -
      bounce 0.1

      lifeTime 550
    }

    count 3
    delay 0
    period 0 - ~0%
  }

  ejector
  {
    particle
    {
      shader sync gfx/lgun/blue_blob

      displacement 0 0 0 ~0.0
      dynamicLight    0 0 20 { 0.8 0.2 0.1 }

      velocityType      normal
      velocityDir       linear
      velocityMagnitude 950
      velocity          0 0 0 ~80

      accelerationType      normal
      accelerationDir       linear
      accelerationMagnitude 900~650
      acceleration          0 0 1 ~360

      radius 0 2.0 0.0
      alpha  0 1.0 0.0
      rotation 0 ~360 -
      bounce 0.5

      lifeTime 90~10
	  childTrailSystem models/weapons/lgun/impactTS
    }

    count 1~7
    delay 0
    period 0 - ~0%
  }
}

models/weapons/grenade/impactTrailPS
{
  ejector
  {
    particle
    {
      shader sync gfx/blood/smokepuff3

      displacement 0 0 0 ~0

      velocityType      static
      velocityDir       linear
      velocityMagnitude 30
      velocity          0 0 -1 ~0

      radius 0 100.0 10.0
      alpha  0 1.0 0.0
      rotation 0 ~360 -
      bounce 0

      lifeTime 500
    }

    count 1
    delay 0
    period 40 - 0
  }
}

models/weapons/grenade/impactPS
{
  ejector
  {
    particle
    {
      shader sync gfx/blood/grenadesmokepuff

      displacement 0 0 0 50.0
      normalDisplacement 3.0

      velocityType      normal
      velocityDir       linear
      velocityMagnitude 10
      velocity          0 0 0 0

      accelerationType      static
      accelerationDir       linear
      accelerationMagnitude 1
      acceleration          0 0 1 0

      radius 0 30.0 180.0
      alpha  0 0.2 0.0
      rotation 0 ~360 -
      bounce 0.0

      lifeTime 9000
    }

    count 5
    delay 0
    period 0 - ~0%
  }
  
  ejector
  {
    particle
    {
      shader sync fexplo1001 fexplo1002 fexplo1003 fexplo1004 fexplo1005 fexplo1006 fexplo1007 fexplo1008 fexplo1009 fexplo1010 fexplo1011 fexplo1012 fexplo1013 fexplo1014 fexplo1015

      displacement 0 0 0 ~20.0
      dynamicLight    0 0 300 { 0.4 0.3 0.2 }

      velocityType      static
      velocityDir       linear
      velocityMagnitude 250~75%
      velocity          0 0 1 ~10

      accelerationType      static
      accelerationDir       linear
      accelerationMagnitude 300
      acceleration          0 0 0 0

      radius 0 150.0 40.0
      alpha  0 0.5 0.5
      rotation 0 ~360 -
      bounce 0

      lifeTime 500

      childSystem models/weapons/grenade/impactTrailPS
    }

    count 5
    delay 0
    period 10 - ~0%
  }
  
  ejector
  {
    particle
    {
      shader sync gfx/grenade/flare_01

      displacement 0 0 8 ~20

      velocityType      static
      velocityDir       linear
      velocityMagnitude 700~3%
      velocity          0 0 1 ~320

      accelerationType      static
      accelerationDir       linear
      accelerationMagnitude 800
      acceleration          0 0 1 0

      radius 0 10.0 2.0
      alpha  0 1.0 0.0
      rotation 0 ~360 -
      bounce 0.1
      bounceMark      2~2 32 gfx/marks/burn_mrk

      lifeTime 350
    }

    count 150
    delay 0
    period 0 - ~0%
  }

  ejector
  {
    particle
    {
      shader sync gfx/sprites/spark

      displacement 0 0 0 ~25.0

      velocityType      normal
      velocityDir       linear
      velocityMagnitude 400
      velocity          0 0 0 ~80

      accelerationType      normal
      accelerationDir       linear
      accelerationMagnitude 700~650
      acceleration          0 0 1 ~360

      radius 0 35.0 0.0
      alpha  0 1.0 0.0
      rotation 0 ~360 -
      bounce 0.5

      lifeTime 1000~500
	  childTrailSystem models/weapons/rifle/impactTS
    }

    count 8~35
    delay 0
    period 0 - ~0%
  }
}

models/weapons/level3upg/missilePS
{
  ejector
  {
    particle
    {
      shader sync gfx/blood/green_acid2

      displacement 0 0 0 ~3.0

      parentVelocityFraction  1.0
      velocityType      static
      velocityDir       linear
      velocityMagnitude 120
      velocity          0 0 1 ~360

      radius 0 5.0 32.0
      alpha  0 1.0 0.0
      bounce 0.1
      color                 0 { 0.4 0.2 0.6 } -

      lifeTime 1000
    }

    count infinite
    delay 0
    period 10 - ~0%
  }

  ejector
  {
    particle
    {
      shader sync gfx/blood/green_acid2

      displacement 0 0 0 ~8

      parentVelocityFraction  0.0~0.05
      velocityType      static
      velocityDir       linear
      velocityMagnitude 2
      velocity          0 0 -1 ~360

      radius 0 10.0 3.0
      alpha  0 1.0 0.0
      bounce 0.1

      lifeTime 50~5000
    }

    count infinite
    delay 0
    period 5 - ~0%
  }
}

models/weapons/level3upg/impactPS
{
  ejector
  {
    particle
    {
      shader sync gfx/sprites/smoke

      displacement 0 0 0 ~2.0
      normalDisplacement 3.0

      velocityType      normal
      velocityDir       linear
      velocityMagnitude 20
      velocity          0 0 0 0

      accelerationType      static
      accelerationDir       linear
      accelerationMagnitude 300
      acceleration          0 0 1 0

      radius 0 4.0 6.0
      alpha  0 0.5 0.0
      rotation 0 ~360 -
      bounce 0.0

      lifeTime 750
    }

    count 15
    delay 0
    period 10 - ~0%
  }

  ejector
  {
    particle
    {
      shader sync gfx/level3upg/green_acid2

      displacement 0 0 0 ~2.0
      normalDisplacement 10.0

      velocityType      normal
      velocityDir       linear
      velocityMagnitude 150
      velocity          0 0 0 ~160

      accelerationType      static
      accelerationDir       linear
      accelerationMagnitude 300
      acceleration          0 0 -1 0

      radius 0 1.0 5.0
      alpha  0 1.0 0.0
      rotation 0 ~360 -
      bounce 0.8
      color                 0 { 0.4 0.2 1.0} -

      lifeTime 2000~1000
    }

    count 12
    delay 0
    period 0 - ~0%
  }
  ejector
  {
    particle
    {
      shader sync gfx/blood/green_acid2

      displacement 0 0 0 ~10.0

      normalDisplacement 15.0

      velocityType      normal
      velocityDir       linear
      velocityMagnitude 150
      velocity          0 0 0 ~160

      accelerationType      static
      accelerationDir       linear
      accelerationMagnitude 150
      acceleration          0 0 -1 0

      radius 0 25.0 0.0
      alpha  0 1.0 0.0
      rotation 0 ~360 -
      bounce 1.0

      lifeTime 1000~1000
    }

    count 5
    delay 0
    period 0 - ~0%
  }

  ejector
  {
    particle
    {
      dynamicLight    0 200 0 { 0.4 0.2 0.6 }

      lifeTime        350~100
    }

    count 1
    delay 0
    period 0 - ~0%
  }
}

models/weapons/chaingun/impactPS
{
  ejector
  {
    particle
    {
      shader sync gfx/blood/impactpuff2

      displacement 0 0 0 ~4.0

      parentVelocityFraction 0.4

      radius 0 5.9 30.0
      alpha  0 0.3 0.0
      rotation 0 ~360 -
      bounce 0.1

      lifeTime 600
    }

    count 3
    delay 0
    period 0 - ~0%
  }

  ejector
  {
    particle
    {
      shader sync gfx/blaster/orange_particle

      displacement 0 0 0 ~0.0
      dynamicLight    0 0 60 { 0.4 0.3 0.2 }

      velocityType      normal
      velocityDir       linear
      velocityMagnitude 950
      velocity          0 0 0 ~80

      accelerationType      normal
      accelerationDir       linear
      accelerationMagnitude 900~650
      acceleration          0 0 1 ~360

      radius 0 2.0 0.0
      alpha  0 1.0 0.0
      rotation 0 ~360 -
      bounce 0.5

      lifeTime 90~35
	  childTrailSystem models/weapons/rifle/impactTS

    }

    count 1~5
    delay 0
    period 0 - ~0%
  }
}